…
`count()` has the additional benefit of allowing for the specification of one our more columns that will be grouped and tabulated. For example, we could tabulate data by unique values of age and sex in Mississippi. The `wt` argument in `count()` specifies the `PWGTP` column as the appropriate weight for data tabulation.


```r
ms_pums %>%
  count(SEX_label, AGEP, wt = PWGTP) 
```

```
## # A tibble: 186 × 3
##    SEX_label  AGEP     n
##    <ord>     <dbl> <dbl>
##  1 Male          0 18111
##  2 Male          1 19206
##  3 Male          2 18507
##  4 Male          3 18558
##  5 Male          4 20054
##  6 Male          5 17884
##  7 Male          6 18875
##  8 Male          7 18775
##  9 Male          8 19316
## 10 Male          9 20866
## # … with 176 more rows
```
…
