Chapter 10 Analyzing Census microdata | Analyzing US Census Data
…
We can perform similar calculations with tidyverse tools. The count() function in the dplyr package performs a simple tabulation of your data. The optional wt argument in count() allows you to specify a weight column, which in this case will be our person-weight.

ms_pums %>% count(wt = PWGTP)

## # A tibble: 1 × 1
##         n
##     <dbl>
## 1 2984418

count() has the additional benefit of allowing for the specification of one our more columns that will be grouped and tabulated. For example, we could tabulate data by unique values of age and sex in Mississippi:

ms_pums %>%
  count(SEX_label, AGEP, wt = PWGTP) 

## # A tibble: 186 × 3
##    SEX_label  AGEP     n
##    <ord>     <dbl> <dbl>
##  1 Male          0 18232
##  2 Male          1 19104
##  3 Male          2 18399
##  4 Male          3 18810
##  5 Male          4 20597
##  6 Male          5 18066
##  7 Male          6 20756
##  8 Male          7 20989
##  9 Male          8 20548
## 10 Male          9 21852
## # … with 176 more rows
…
