Chapter 11 Historical Census data analysis with NHGIS and IPUMS | Analyzing the US Census with R
…
nyc_1910

## Simple feature collection with 704 features and 58 fields
## Geometry type: MULTIPOLYGON
## Dimension:     XY
## Bounding box:  xmin: 1810884 ymin: 544085.4 xmax: 1851324 ymax: 596805.5
## Projected CRS: USA_Contiguous_Albers_Equal_Area_Conic
## # A tibble: 704 x 59
##    NHGISST NHGISCTY GISJOIN       GISJOIN2     SHAPE_AREA SHAPE_LEN
##  * <chr>   <chr>    <chr>         <chr>             <dbl>     <dbl>
##  1 360     0610     G3600610B0002 3600610B0002    382739.     3279.
##  2 360     0610     G3600610B0001 3600610B0001   1141818.     6311.
##  3 360     0470     G36004700058  36004700058     153367.     1603.
##  4 360     0470     G36004700059  36004700059     209366.     2082.
##  5 360     0470     G36004700062  36004700062     155479.     1608.
##  6 360     0470     G36004700042  36004700042     215673.     1939.
##  7 360     0470     G36004700030  36004700030     178404.     1718.
##  8 360     0470     G36004700031  36004700031     163969.     1605.
##  9 360     0470     G36004700032  36004700032     326661.     2511.
## 10 360     0470     G36004700033  36004700033     252369.     2200.
## # … with 694 more rows, and 53 more variables: geometry <MULTIPOLYGON [m]>,
## #   layer <chr>, DECADE <chr>, ICPSRCTY <chr>, ICPSRCTYI <dbl>, ICPSRFIP <dbl>,
## #   ICPSRNAM <chr>, ICPSRST <chr>, ICPSRSTI <dbl>, ICPSRUNI <chr>,
## #   NHGISNAM <chr>, STATENAM <chr>, YEAR <dbl>, STATE <chr>, STATEA <dbl>,
## #   COUNTY <chr>, COUNTYA <chr>, PRETRACTA <chr>, TRACTA <chr>,
## #   POSTTRCTA <lgl>, AREANAME <chr>, A6G001 <dbl>, A6G002 <dbl>, A6G003 <dbl>,
## #   A6G004 <dbl>, A6G005 <dbl>, A6G006 <dbl>, A6G007 <dbl>, A6G008 <dbl>,
## #   A6G009 <dbl>, A6G010 <dbl>, A6G011 <dbl>, A6G012 <dbl>, A6G013 <dbl>,
## #   A6G014 <dbl>, A6G015 <dbl>, A6G016 <dbl>, A6G017 <dbl>, A6G018 <dbl>,
…
